01;999999999999999999999;88888888888888    ;         ;   ;   ;13/10/2016;03/10/2016;03/10/2017;  4;10/10/2016;        300.000,00;          2.062,68;              0,00;              0,00;            152,23;          2.214,91;55555555555555 ;    ;2;Renovação                ;
02;999999999999999999999;EMPRESA DE SERVICOS LTDA            ;RUA GILMA RUCEF                     ;999       ;                    ;BAIRRO FAKE               ;99999999 ;CIDADE           ;ES;(0055)99999999    ;J;88888888888888    ;atendimento@corretoradeseguros.com.br                        ;                  ;          ;      ;
12;999999999999999999999;18;C;00000123456789; ;              ; ;              ;0,3000;
13;999999999999999999999;                     ; 1;000001;            233,56;RUA AAAAAAA BBBBBBBB, 999               ;                    ;CIDADE           ;ES;99999999 ;INV;197088  ;ESCRITORIOS - SOBRADO, TERREO E 1o. PAVIMENTO                                                       ;7        ;ALVENARIA COM ATE 25% DE METAL          ;003;PREDIO E CONTEUDO   ;0   ;                              ;0        ;-0,0500;N;N;                 ; 000,00000
13;999999999999999999999;                     ; 1;000002;            371,20;RODOVIA XX 999, 480                     ;                    ;CIDADE II        ;ES;99999999 ;IOG;371064  ;MATERIAIS PARA CONSTRUCAO - DEPOSITOS OU LOJA                                                       ;7        ;ALVENARIA COM ATE 25% DE METAL          ;003;PREDIO E CONTEUDO   ;0   ;                              ;0        ;-0,0500;N;N;                 ; 000,00000
13;999999999999999999999;                     ; 1;000003;            351,41;RUA CCCCC DDDDDDDDDD, 45                ;CENTRO              ;CIDADE           ;ES;99999999 ;INV;374056  ;METAL - DEPOSITOS E LOJAS DE ARTIGOS - REVIS                                                        ;7        ;ALVENARIA COM ATE 25% DE METAL          ;003;PREDIO E CONTEUDO   ;0   ;                              ;0        ;-0,0500;N;N;                 ; 000,00000
13;999999999999999999999;                     ; 1;000004;            313,21;RUA EEEE FFFFFFFFF, 3960                ;                    ;CIDADE           ;ES;99999999 ;INV;290167  ;IGREJAS                                                                                             ;7        ;ALVENARIA COM ATE 25% DE METAL          ;003;PREDIO E CONTEUDO   ;0   ;                              ;0        ;-0,0500;N;N;                 ; 000,00000
13;999999999999999999999;                     ; 1;000005;            424,32;TRAVESSA GGGG HHHHHHHH, 57              ;                    ;CIDADE III    ;ES;99999999 ;OBU;472064  ;ROUPAS - DEPOSITOS OU LOJAS                                                                         ;7        ;ALVENARIA COM ATE 25% DE METAL          ;003;PREDIO E CONTEUDO   ;0   ;                              ;0        ;-0,0500;N;N;                 ; 000,00000
13;999999999999999999999;                     ; 1;000006;            368,98;RUA III JJJ KKKKK, 574                  ;                    ;LLLLL               ;ES;99999999 ;MAF;371064  ;MATERIAIS PARA CONSTRUCAO - DEPOSITOS OU LOJA                                                       ;7        ;ALVENARIA COM ATE 25% DE METAL          ;003;PREDIO E CONTEUDO   ;0   ;                              ;0        ;-0,0500;N;N;                 ; 000,00000
