01;02029242A131932000002;77777777777777    ;         ;   ;   ;14/10/2016;14/10/2016;15/09/2017;  1;          ;     53.587.487,55;-         3.643,75;              0,00;              0,00;              0,00;-         3.643,75;000            ;6572;3;Endosso                  ;
02;02029242A131932000002;SORVETERIA DO PINTO LTDA            ;RUA OLGA BENARIO                     ;795       ;                    ;OLGA BENARIO               ;89203301 ;QUEDAS DO IGUACU           ;PR;(0041)99999999    ;J;99999999999999    ;atendimento@corretoradeseguros.com.br                        ;                  ;          ;      ;
03;02029242A131932000002;000135;MITSUBISHI     ;OUTLANDER       2.0 16V 160CV AUT.                                ;2013;2014;AAA-0000;AAAAAAAAAAAAAAAAA   ;005;O; 30,00;07;0005;77777777777;88888-000;89203-000;QUEDAS DO IGUACU E REGIAO  ;34;Col.- Item Excl.Vei.;110,00000;Valor de Mercado Referenciado      ; 0,0000;000;99999999999999    ;99999999999999    ;
05;02029242A131932000002;000135;0001;         86.406,10;          3.265,50;E;-         3.033,92;              0,00;
05;02029242A131932000002;000135;0004;        200.000,00;              0,00; ;-           327,91;              0,00;
05;02029242A131932000002;000135;0005;        400.000,00;              0,00; ;-           236,56;              0,00;
06;02029242A131932000002;000135;0017;0055;              0,00;            220,00;O;HDI Auto Vidros                    ;              0,00;              0,00;
06;02029242A131932000002;000135;0022;0055;              0,00;              0,00; ;Sem Limite Km                      ;              0,00;              0,00;
06;02029242A131932000002;000135;0041;0055;         60.000,00;              0,00; ;Danos Morais                       ;-            45,36;            123,19;
06;02029242A131932000002;000135;0101;0055;              0,00;            200,00;O;Lanterna,Retrov,Faróis (Importados);              0,00;              0,00;
06;02029242A131932000002;000135;0117;0055;              0,00;              0,00; ;15 dias CR                         ;              0,00;              0,00;
12;02029242A131932000002;31;C;00000211563023; ;              ; ;              ;0,2000;
12;02029242A131932000002;42;C;00000211563023; ;              ; ;              ;0,2000;
12;02029242A131932000002;53;C;00000211563023; ;              ; ;              ;0,2000;
