01;111111111111111111111;99999999999       ;         ;   ;   ;22/06/2016;01/06/2016;01/06/2017;  4;08/06/2016;      1.200.000,00;          1.145,28;              0,00;              0,00;             84,52;          1.229,80;88888888888888 ;    ;2;Renovação                ;
02;111111111111111111111;AAAAAA BBBB                             ;RUA CCCCCCC                             ;777 A     ;                    ;DDDDD EEEEEEEEE               ;66666666 ;FFFFFFFFF           ;GG;(5555)44444444    ;F;33333333333       ;hhhhhh@iiiiiiiiiii.com.br                                   ;22222222          ;14/07/1998;JJJ   ;
12;111111111111111111111;18;C;22222222222222; ;              ; ;              ;0,2500;
12;111111111111111111111;41;C;22222222222222; ;              ; ;              ;0,2500;
13;111111111111111111111;                     ; 1;000001;          1.059,37;RUA CCCCCCC, 777 A                      ;                    ;FFFFFFFFF           ;GG;66666666 ;INV;190264  ;EDIFICIOS DESOCUPADOS COM CLAUSULA DE EDIF DESOC                                                    ;1        ;ALVENARIA                               ;001;PREDIO              ;0   ;                              ;0        ;-0,0500;N;N;                 ;-033,30000
13;111111111111111111111;                     ; 1;000001;             85,91;RUA CCCCCCC, 777 A                      ;                    ;FFFFFFFFF           ;GG;66666666 ;INV;190264  ;EDIFICIOS DESOCUPADOS COM CLAUSULA DE EDIF DESOC                                                    ;1        ;ALVENARIA                               ;001;PREDIO              ;0   ;                              ;0        ;-0,0500;N;N;                 ;-033,30000
14;111111111111111111111;                     ;18;1 ;000001;      ;                                        ;0007;Danos Eletricos                         ;         30.000,00;00            ;Minimo de 1.000,00                                                              ;              0,00;            150,53;            150,53;            150,53;              0,00;2;
14;111111111111111111111;                     ;18;1 ;000001;      ;                                        ;1070;Vendaval/Fumaca C/ Impacto de Veiculos  ;         80.000,00;00            ;1.500,00 p/ Industriais/Postos Serv e 1.000,00 p/Com./Prest.Serv                ;              0,00;             96,22;             96,22;             96,22;              0,00;2;
14;111111111111111111111;                     ;51;1 ;000001;      ;                                        ;0026;Responsabilidade Civil Operacoes        ;         30.000,00;00            ;Minimo de 750,00                                                                ;              0,00;             85,91;             85,91;             85,91;              0,00;2;
14;111111111111111111111;                     ;18;1 ;000001;      ;                                        ;0007;Danos Eletricos                         ;         30.000,00;00            ;Minimo de 1.000,00                                                              ;              0,00;            150,53;            150,53;            150,53;              0,00;2;
14;111111111111111111111;                     ;18;1 ;000001;      ;                                        ;1070;Vendaval/Fumaca C/ Impacto de Veiculos  ;         80.000,00;00            ;1.500,00 p/ Industriais/Postos Serv e 1.000,00 p/Com./Prest.Serv                ;              0,00;             96,22;             96,22;             96,22;              0,00;2;
14;111111111111111111111;                     ;51;1 ;000001;      ;                                        ;0026;Responsabilidade Civil Operacoes        ;         30.000,00;00            ;Minimo de 750,00                                                                ;              0,00;             85,91;             85,91;             85,91;              0,00;2;
